…
Diagnostics on my model…

``` r
modelr::add_residuals(baby_df, lm_3)
```

    ## Warning in predict.lm(model, data): prediction from a rank-deficient fit may be
    ## misleading

    ## # A tibble: 4,342 x 20
    ##       id babysex bhead blength   bwt momwt fincome frace gaweeks malform
    ##    <int> <fct>   <dbl>   <dbl> <dbl> <dbl>   <dbl> <fct>   <dbl> <chr>  
    ##  1     1 male       35      52  3.26  63.5    3500 puer…    40.3 absent 
    ##  2     2 female     32      51  3.09  63.5    3500 black    41.4 absent 
    ##  3     3 female     32      47  2.89  62.6    2500 black    35.3 absent 
    ##  4     4 female     34      50  3.40  81.6    3500 black    39.4 absent 
    ##  5     5 female     34      50  3.52  59.9    4500 puer…    41.1 absent 
    ##  6     6 male       35      51  3.18  64.9    5500 puer…    37.6 absent 
    ##  7     7 male       34      51  3.66  80.7    1500 black    39.4 absent 
    ##  8     8 male       36      51  3.68  79.8    4500 black    38.1 absent 
    ##  9     9 male       35      52  3.52  73.0    4500 white    42.1 absent 
    ## 10    10 female     30      44  2.01  62.1    3500 puer…    34.1 absent 
    ## # … with 4,332 more rows, and 10 more variables: menarche <dbl>, mheight <dbl>,
    ## #   momage <dbl>, mrace <fct>, parity <dbl>, ppbmi <dbl>, ppwt <dbl>,
    ## #   smoken <dbl>, wtgain <dbl>, resid <dbl>
…
    ## Warning in predict.lm(model, data): prediction from a rank-deficient fit may be
    ## misleading

<img src="p8105_hw6_jyc2171_files/figure-gfm/unnamed-chunk-8-20.png" width="90%" />

``` r
#use add_predictions

modelr::add_predictions(baby_df, lm_3)
```

    ## Warning in predict.lm(model, data): prediction from a rank-deficient fit may be
    ## misleading

    ## # A tibble: 4,342 x 20
    ##       id babysex bhead blength   bwt momwt fincome frace gaweeks malform
    ##    <int> <fct>   <dbl>   <dbl> <dbl> <dbl>   <dbl> <fct>   <dbl> <chr>  
    ##  1     1 male       35      52  3.26  63.5    3500 puer…    40.3 absent 
    ##  2     2 female     32      51  3.09  63.5    3500 black    41.4 absent 
    ##  3     3 female     32      47  2.89  62.6    2500 black    35.3 absent 
    ##  4     4 female     34      50  3.40  81.6    3500 black    39.4 absent 
    ##  5     5 female     34      50  3.52  59.9    4500 puer…    41.1 absent 
    ##  6     6 male       35      51  3.18  64.9    5500 puer…    37.6 absent 
    ##  7     7 male       34      51  3.66  80.7    1500 black    39.4 absent 
    ##  8     8 male       36      51  3.68  79.8    4500 black    38.1 absent 
    ##  9     9 male       35      52  3.52  73.0    4500 white    42.1 absent 
    ## 10    10 female     30      44  2.01  62.1    3500 puer…    34.1 absent 
    ## # … with 4,332 more rows, and 10 more variables: menarche <dbl>, mheight <dbl>,
    ## #   momage <dbl>, mrace <fct>, parity <dbl>, ppbmi <dbl>, ppwt <dbl>,
    ## #   smoken <dbl>, wtgain <dbl>, pred <dbl>
…
Next, I will first fit the two specified models in the homework and
perform cross-validation just for these two models, to make sure I can
do it correctly.

``` r
lm_1 = lm(bwt ~ blength + gaweeks, data = baby_df) %>% broom::tidy()
lm_2 = lm(bwt ~ bhead * blength * babysex, data = baby_df) %>% broom::tidy()

cv_df = crossv_mc(baby_df, 100)

cv_df %>% pull(train) %>% .[[1]] %>% as_tibble()
```

    ## # A tibble: 3,473 x 19
    ##       id babysex bhead blength   bwt momwt fincome frace gaweeks malform
    ##    <int> <fct>   <dbl>   <dbl> <dbl> <dbl>   <dbl> <fct>   <dbl> <chr>  
    ##  1     1 male       35      52  3.26  63.5    3500 puer…    40.3 absent 
    ##  2     3 female     32      47  2.89  62.6    2500 black    35.3 absent 
    ##  3     4 female     34      50  3.40  81.6    3500 black    39.4 absent 
    ##  4     5 female     34      50  3.52  59.9    4500 puer…    41.1 absent 
    ##  5     9 male       35      52  3.52  73.0    4500 white    42.1 absent 
    ##  6    10 female     30      44  2.01  62.1    3500 puer…    34.1 absent 
    ##  7    11 female     33      49  3.00  68.5    3500 black    38.9 absent 
    ##  8    12 male       33      47  2.33  65.3    2500 white    35.3 absent 
    ##  9    14 female     34      50  3.97  61.2    9500 white    42.1 absent 
    ## 10    15 female     37      57  3.80  64.4    6500 white    41.7 absent 
    ## # … with 3,463 more rows, and 9 more variables: menarche <dbl>, mheight <dbl>,
    ## #   momage <dbl>, mrace <fct>, parity <dbl>, ppbmi <dbl>, ppwt <dbl>,
    ## #   smoken <dbl>, wtgain <dbl>

``` r
cv_df %>% pull(test) %>% .[[1]] %>% as_tibble()
```

    ## # A tibble: 869 x 19
    ##       id babysex bhead blength   bwt momwt fincome frace gaweeks malform
    ##    <int> <fct>   <dbl>   <dbl> <dbl> <dbl>   <dbl> <fct>   <dbl> <chr>  
    ##  1     2 female     32      51  3.09  63.5    3500 black    41.4 absent 
    ##  2     6 male       35      51  3.18  64.9    5500 puer…    37.6 absent 
    ##  3     7 male       34      51  3.66  80.7    1500 black    39.4 absent 
    ##  4     8 male       36      51  3.68  79.8    4500 black    38.1 absent 
    ##  5    13 male       35      51  3.40  74.4    8500 white    40   absent 
    ##  6    16 male       34      48  3.20  72.6     500 black    40.7 absent 
    ##  7    23 male       31      47  1.96  65.3    2500 black    41.6 absent 
    ##  8    25 female     34      50  3.54  68.5    6500 puer…    41.4 absent 
    ##  9    27 male       32      50  3.03  59.4    5500 white    39.7 absent 
    ## 10    28 female     34      50  3.29  98.9    2500 black    34.3 absent 
    ## # … with 859 more rows, and 9 more variables: menarche <dbl>, mheight <dbl>,
    ## #   momage <dbl>, mrace <fct>, parity <dbl>, ppbmi <dbl>, ppwt <dbl>,
    ## #   smoken <dbl>, wtgain <dbl>
…
Draw many bootstrap samples, first setting 100 samples to save time and
see if my code works. In my final code, I will increase to 5000 samples.

``` r
boot_straps =
  tibble(
    strap_number = 1:100,
    strap_sample = rerun(100, boot_sample(weather_df))
  )

#boot_straps %>% pull(strap_sample)
boot_straps %>% pull(strap_sample) %>% .[[1]]
```

    ## # A tibble: 365 x 6
    ##    name           id          date        prcp  tmax  tmin
    ##    <chr>          <chr>       <date>     <dbl> <dbl> <dbl>
    ##  1 CentralPark_NY USW00094728 2017-12-28     0  -7.7 -11.6
    ##  2 CentralPark_NY USW00094728 2017-12-27     0  -4.3  -8.2
    ##  3 CentralPark_NY USW00094728 2017-03-04     0  -1    -8.2
    ##  4 CentralPark_NY USW00094728 2017-12-27     0  -4.3  -8.2
    ##  5 CentralPark_NY USW00094728 2017-03-04     0  -1    -8.2
    ##  6 CentralPark_NY USW00094728 2017-12-30    13  -4.9  -8.2
    ##  7 CentralPark_NY USW00094728 2017-02-10     0   0    -7.1
    ##  8 CentralPark_NY USW00094728 2017-02-09   295   6.7  -7.1
    ##  9 CentralPark_NY USW00094728 2017-03-12     0  -1.6  -7.1
    ## 10 CentralPark_NY USW00094728 2017-02-09   295   6.7  -7.1
    ## # … with 355 more rows

``` r
boot_straps %>% pull(strap_sample) %>% .[[21]]
```

    ## # A tibble: 365 x 6
    ##    name           id          date        prcp  tmax  tmin
    ##    <chr>          <chr>       <date>     <dbl> <dbl> <dbl>
    ##  1 CentralPark_NY USW00094728 2017-12-31     0  -6   -12.7
    ##  2 CentralPark_NY USW00094728 2017-12-31     0  -6   -12.7
    ##  3 CentralPark_NY USW00094728 2017-01-09     0  -4.9  -9.9
    ##  4 CentralPark_NY USW00094728 2017-01-09     0  -4.9  -9.9
    ##  5 CentralPark_NY USW00094728 2017-01-08     0  -3.8  -8.8
    ##  6 CentralPark_NY USW00094728 2017-12-27     0  -4.3  -8.2
    ##  7 CentralPark_NY USW00094728 2017-12-30    13  -4.9  -8.2
    ##  8 CentralPark_NY USW00094728 2017-02-10     0   0    -7.1
    ##  9 CentralPark_NY USW00094728 2017-02-10     0   0    -7.1
    ## 10 CentralPark_NY USW00094728 2017-03-13     0   2.2  -6.6
    ## # … with 355 more rows

``` r
boot_straps %>% pull(strap_sample) %>% .[[97]]
```

    ## # A tibble: 365 x 6
    ##    name           id          date        prcp  tmax  tmin
    ##    <chr>          <chr>       <date>     <dbl> <dbl> <dbl>
    ##  1 CentralPark_NY USW00094728 2017-12-29     0  -5.5 -11.6
    ##  2 CentralPark_NY USW00094728 2017-03-05     0   2.8  -9.9
    ##  3 CentralPark_NY USW00094728 2017-01-09     0  -4.9  -9.9
    ##  4 CentralPark_NY USW00094728 2017-03-05     0   2.8  -9.9
    ##  5 CentralPark_NY USW00094728 2017-01-09     0  -4.9  -9.9
    ##  6 CentralPark_NY USW00094728 2017-01-08     0  -3.8  -8.8
    ##  7 CentralPark_NY USW00094728 2017-03-11     0  -1.6  -8.2
    ##  8 CentralPark_NY USW00094728 2017-03-11     0  -1.6  -8.2
    ##  9 CentralPark_NY USW00094728 2017-02-09   295   6.7  -7.1
    ## 10 CentralPark_NY USW00094728 2017-03-12     0  -1.6  -7.1
    ## # … with 355 more rows
…
